^C:\USERS\RCHENG\DROPBOX\JHU2013FALL\COMPUTERGRAPHICS\ASSIGNMENT2\JPEG\CKCONFIG.CPP|C:\USERS\RCHENG\DROPBOX\JHU2013FALL\COMPUTERGRAPHICS\ASSIGNMENT2\JPEG\JCAPIMIN.CPP|C:\USERS\RCHENG\DROPBOX\JHU2013FALL\COMPUTERGRAPHICS\ASSIGNMENT2\JPEG\JCAPISTD.CPP|C:\USERS\RCHENG\DROPBOX\JHU2013FALL\COMPUTERGRAPHICS\ASSIGNMENT2\JPEG\JCCOEFCT.CPP|C:\USERS\RCHENG\DROPBOX\JHU2013FALL\COMPUTERGRAPHICS\ASSIGNMENT2\JPEG\JCCOLOR.CPP|C:\USERS\RCHENG\DROPBOX\JHU2013FALL\COMPUTERGRAPHICS\ASSIGNMENT2\JPEG\JCDCTMGR.CPP|C:\USERS\RCHENG\DROPBOX\JHU2013FALL\COMPUTERGRAPHICS\ASSIGNMENT2\JPEG\JCHUFF.CPP|C:\USERS\RCHENG\DROPBOX\JHU2013FALL\COMPUTERGRAPHICS\ASSIGNMENT2\JPEG\JCINIT.CPP|C:\USERS\RCHENG\DROPBOX\JHU2013FALL\COMPUTERGRAPHICS\ASSIGNMENT2\JPEG\JCMAINCT.CPP|C:\USERS\RCHENG\DROPBOX\JHU2013FALL\COMPUTERGRAPHICS\ASSIGNMENT2\JPEG\JCMARKER.CPP|C:\USERS\RCHENG\DROPBOX\JHU2013FALL\COMPUTERGRAPHICS\ASSIGNMENT2\JPEG\JCMASTER.CPP|C:\USERS\RCHENG\DROPBOX\JHU2013FALL\COMPUTERGRAPHICS\ASSIGNMENT2\JPEG\JCOMAPI.CPP|C:\USERS\RCHENG\DROPBOX\JHU2013FALL\COMPUTERGRAPHICS\ASSIGNMENT2\JPEG\JCPARAM.CPP|C:\USERS\RCHENG\DROPBOX\JHU2013FALL\COMPUTERGRAPHICS\ASSIGNMENT2\JPEG\JCPHUFF.CPP|C:\USERS\RCHENG\DROPBOX\JHU2013FALL\COMPUTERGRAPHICS\ASSIGNMENT2\JPEG\JCPREPCT.CPP|C:\USERS\RCHENG\DROPBOX\JHU2013FALL\COMPUTERGRAPHICS\ASSIGNMENT2\JPEG\JCSAMPLE.CPP|C:\USERS\RCHENG\DROPBOX\JHU2013FALL\COMPUTERGRAPHICS\ASSIGNMENT2\JPEG\JCTRANS.CPP|C:\USERS\RCHENG\DROPBOX\JHU2013FALL\COMPUTERGRAPHICS\ASSIGNMENT2\JPEG\JDAPIMIN.CPP|C:\USERS\RCHENG\DROPBOX\JHU2013FALL\COMPUTERGRAPHICS\ASSIGNMENT2\JPEG\JDAPISTD.CPP|C:\USERS\RCHENG\DROPBOX\JHU2013FALL\COMPUTERGRAPHICS\ASSIGNMENT2\JPEG\JDATADST.CPP|C:\USERS\RCHENG\DROPBOX\JHU2013FALL\COMPUTERGRAPHICS\ASSIGNMENT2\JPEG\JDATASRC.CPP|C:\USERS\RCHENG\DROPBOX\JHU2013FALL\COMPUTERGRAPHICS\ASSIGNMENT2\JPEG\JDCOEFCT.CPP|C:\USERS\RCHENG\DROPBOX\JHU2013FALL\COMPUTERGRAPHICS\ASSIGNMENT2\JPEG\JDCOLOR.CPP|C:\USERS\RCHENG\DROPBOX\JHU2013FALL\COMPUTERGRAPHICS\ASSIGNMENT2\JPEG\JDDCTMGR.CPP|C:\USERS\RCHENG\DROPBOX\JHU2013FALL\COMPUTERGRAPHICS\ASSIGNMENT2\JPEG\JDHUFF.CPP|C:\USERS\RCHENG\DROPBOX\JHU2013FALL\COMPUTERGRAPHICS\ASSIGNMENT2\JPEG\JDINPUT.CPP|C:\USERS\RCHENG\DROPBOX\JHU2013FALL\COMPUTERGRAPHICS\ASSIGNMENT2\JPEG\JDMAINCT.CPP|C:\USERS\RCHENG\DROPBOX\JHU2013FALL\COMPUTERGRAPHICS\ASSIGNMENT2\JPEG\JDMARKER.CPP|C:\USERS\RCHENG\DROPBOX\JHU2013FALL\COMPUTERGRAPHICS\ASSIGNMENT2\JPEG\JDMASTER.CPP|C:\USERS\RCHENG\DROPBOX\JHU2013FALL\COMPUTERGRAPHICS\ASSIGNMENT2\JPEG\JDMERGE.CPP|C:\USERS\RCHENG\DROPBOX\JHU2013FALL\COMPUTERGRAPHICS\ASSIGNMENT2\JPEG\JDPHUFF.CPP|C:\USERS\RCHENG\DROPBOX\JHU2013FALL\COMPUTERGRAPHICS\ASSIGNMENT2\JPEG\JDPOSTCT.CPP|C:\USERS\RCHENG\DROPBOX\JHU2013FALL\COMPUTERGRAPHICS\ASSIGNMENT2\JPEG\JDSAMPLE.CPP|C:\USERS\RCHENG\DROPBOX\JHU2013FALL\COMPUTERGRAPHICS\ASSIGNMENT2\JPEG\JDTRANS.CPP|C:\USERS\RCHENG\DROPBOX\JHU2013FALL\COMPUTERGRAPHICS\ASSIGNMENT2\JPEG\JERROR.CPP|C:\USERS\RCHENG\DROPBOX\JHU2013FALL\COMPUTERGRAPHICS\ASSIGNMENT2\JPEG\JFDCTFLT.CPP|C:\USERS\RCHENG\DROPBOX\JHU2013FALL\COMPUTERGRAPHICS\ASSIGNMENT2\JPEG\JFDCTFST.CPP|C:\USERS\RCHENG\DROPBOX\JHU2013FALL\COMPUTERGRAPHICS\ASSIGNMENT2\JPEG\JFDCTINT.CPP|C:\USERS\RCHENG\DROPBOX\JHU2013FALL\COMPUTERGRAPHICS\ASSIGNMENT2\JPEG\JIDCTFLT.CPP|C:\USERS\RCHENG\DROPBOX\JHU2013FALL\COMPUTERGRAPHICS\ASSIGNMENT2\JPEG\JIDCTFST.CPP|C:\USERS\RCHENG\DROPBOX\JHU2013FALL\COMPUTERGRAPHICS\ASSIGNMENT2\JPEG\JIDCTINT.CPP|C:\USERS\RCHENG\DROPBOX\JHU2013FALL\COMPUTERGRAPHICS\ASSIGNMENT2\JPEG\JIDCTRED.CPP|C:\USERS\RCHENG\DROPBOX\JHU2013FALL\COMPUTERGRAPHICS\ASSIGNMENT2\JPEG\JMEMMGR.CPP|C:\USERS\RCHENG\DROPBOX\JHU2013FALL\COMPUTERGRAPHICS\ASSIGNMENT2\JPEG\JMEMNOBS.CPP|C:\USERS\RCHENG\DROPBOX\JHU2013FALL\COMPUTERGRAPHICS\ASSIGNMENT2\JPEG\JQUANT1.CPP|C:\USERS\RCHENG\DROPBOX\JHU2013FALL\COMPUTERGRAPHICS\ASSIGNMENT2\JPEG\JQUANT2.CPP|C:\USERS\RCHENG\DROPBOX\JHU2013FALL\COMPUTERGRAPHICS\ASSIGNMENT2\JPEG\JUTILS.CPP
C:\USERS\RCHENG\DROPBOX\JHU2013FALL\COMPUTERGRAPHICS\ASSIGNMENT2\JPEG___WIN32_DEBUG\JDMARKER.OBJ
C:\USERS\RCHENG\DROPBOX\JHU2013FALL\COMPUTERGRAPHICS\ASSIGNMENT2\JPEG___WIN32_DEBUG\JDMASTER.OBJ
C:\USERS\RCHENG\DROPBOX\JHU2013FALL\COMPUTERGRAPHICS\ASSIGNMENT2\JPEG___WIN32_DEBUG\JDMERGE.OBJ
C:\USERS\RCHENG\DROPBOX\JHU2013FALL\COMPUTERGRAPHICS\ASSIGNMENT2\JPEG___WIN32_DEBUG\JDPHUFF.OBJ
C:\USERS\RCHENG\DROPBOX\JHU2013FALL\COMPUTERGRAPHICS\ASSIGNMENT2\JPEG___WIN32_DEBUG\JDPOSTCT.OBJ
C:\USERS\RCHENG\DROPBOX\JHU2013FALL\COMPUTERGRAPHICS\ASSIGNMENT2\JPEG___WIN32_DEBUG\JDSAMPLE.OBJ
C:\USERS\RCHENG\DROPBOX\JHU2013FALL\COMPUTERGRAPHICS\ASSIGNMENT2\JPEG___WIN32_DEBUG\JDTRANS.OBJ
C:\USERS\RCHENG\DROPBOX\JHU2013FALL\COMPUTERGRAPHICS\ASSIGNMENT2\JPEG___WIN32_DEBUG\JERROR.OBJ
C:\USERS\RCHENG\DROPBOX\JHU2013FALL\COMPUTERGRAPHICS\ASSIGNMENT2\JPEG___WIN32_DEBUG\JFDCTFLT.OBJ
C:\USERS\RCHENG\DROPBOX\JHU2013FALL\COMPUTERGRAPHICS\ASSIGNMENT2\JPEG___WIN32_DEBUG\JFDCTFST.OBJ
C:\USERS\RCHENG\DROPBOX\JHU2013FALL\COMPUTERGRAPHICS\ASSIGNMENT2\JPEG___WIN32_DEBUG\JFDCTINT.OBJ
C:\USERS\RCHENG\DROPBOX\JHU2013FALL\COMPUTERGRAPHICS\ASSIGNMENT2\JPEG___WIN32_DEBUG\JIDCTFLT.OBJ
C:\USERS\RCHENG\DROPBOX\JHU2013FALL\COMPUTERGRAPHICS\ASSIGNMENT2\JPEG___WIN32_DEBUG\JIDCTFST.OBJ
C:\USERS\RCHENG\DROPBOX\JHU2013FALL\COMPUTERGRAPHICS\ASSIGNMENT2\JPEG___WIN32_DEBUG\JIDCTINT.OBJ
C:\USERS\RCHENG\DROPBOX\JHU2013FALL\COMPUTERGRAPHICS\ASSIGNMENT2\JPEG___WIN32_DEBUG\JIDCTRED.OBJ
C:\USERS\RCHENG\DROPBOX\JHU2013FALL\COMPUTERGRAPHICS\ASSIGNMENT2\JPEG___WIN32_DEBUG\JMEMMGR.OBJ
C:\USERS\RCHENG\DROPBOX\JHU2013FALL\COMPUTERGRAPHICS\ASSIGNMENT2\JPEG___WIN32_DEBUG\JMEMNOBS.OBJ
C:\USERS\RCHENG\DROPBOX\JHU2013FALL\COMPUTERGRAPHICS\ASSIGNMENT2\JPEG___WIN32_DEBUG\JQUANT1.OBJ
C:\USERS\RCHENG\DROPBOX\JHU2013FALL\COMPUTERGRAPHICS\ASSIGNMENT2\JPEG___WIN32_DEBUG\JQUANT2.OBJ
C:\USERS\RCHENG\DROPBOX\JHU2013FALL\COMPUTERGRAPHICS\ASSIGNMENT2\JPEG___WIN32_DEBUG\JUTILS.OBJ
C:\USERS\RCHENG\DROPBOX\JHU2013FALL\COMPUTERGRAPHICS\ASSIGNMENT2\JPEG___WIN32_DEBUG\JCINIT.OBJ
C:\USERS\RCHENG\DROPBOX\JHU2013FALL\COMPUTERGRAPHICS\ASSIGNMENT2\JPEG___WIN32_DEBUG\JCMAINCT.OBJ
C:\USERS\RCHENG\DROPBOX\JHU2013FALL\COMPUTERGRAPHICS\ASSIGNMENT2\JPEG___WIN32_DEBUG\JCMARKER.OBJ
C:\USERS\RCHENG\DROPBOX\JHU2013FALL\COMPUTERGRAPHICS\ASSIGNMENT2\JPEG___WIN32_DEBUG\JCMASTER.OBJ
C:\USERS\RCHENG\DROPBOX\JHU2013FALL\COMPUTERGRAPHICS\ASSIGNMENT2\JPEG___WIN32_DEBUG\JCOMAPI.OBJ
C:\USERS\RCHENG\DROPBOX\JHU2013FALL\COMPUTERGRAPHICS\ASSIGNMENT2\JPEG___WIN32_DEBUG\JCPARAM.OBJ
C:\USERS\RCHENG\DROPBOX\JHU2013FALL\COMPUTERGRAPHICS\ASSIGNMENT2\JPEG___WIN32_DEBUG\JCPHUFF.OBJ
C:\USERS\RCHENG\DROPBOX\JHU2013FALL\COMPUTERGRAPHICS\ASSIGNMENT2\JPEG___WIN32_DEBUG\JCPREPCT.OBJ
C:\USERS\RCHENG\DROPBOX\JHU2013FALL\COMPUTERGRAPHICS\ASSIGNMENT2\JPEG___WIN32_DEBUG\JCSAMPLE.OBJ
C:\USERS\RCHENG\DROPBOX\JHU2013FALL\COMPUTERGRAPHICS\ASSIGNMENT2\JPEG___WIN32_DEBUG\JCTRANS.OBJ
C:\USERS\RCHENG\DROPBOX\JHU2013FALL\COMPUTERGRAPHICS\ASSIGNMENT2\JPEG___WIN32_DEBUG\JDAPIMIN.OBJ
C:\USERS\RCHENG\DROPBOX\JHU2013FALL\COMPUTERGRAPHICS\ASSIGNMENT2\JPEG___WIN32_DEBUG\JDAPISTD.OBJ
C:\USERS\RCHENG\DROPBOX\JHU2013FALL\COMPUTERGRAPHICS\ASSIGNMENT2\JPEG___WIN32_DEBUG\JDATADST.OBJ
C:\USERS\RCHENG\DROPBOX\JHU2013FALL\COMPUTERGRAPHICS\ASSIGNMENT2\JPEG___WIN32_DEBUG\JDATASRC.OBJ
C:\USERS\RCHENG\DROPBOX\JHU2013FALL\COMPUTERGRAPHICS\ASSIGNMENT2\JPEG___WIN32_DEBUG\JDCOEFCT.OBJ
C:\USERS\RCHENG\DROPBOX\JHU2013FALL\COMPUTERGRAPHICS\ASSIGNMENT2\JPEG___WIN32_DEBUG\JDCOLOR.OBJ
C:\USERS\RCHENG\DROPBOX\JHU2013FALL\COMPUTERGRAPHICS\ASSIGNMENT2\JPEG___WIN32_DEBUG\JDDCTMGR.OBJ
C:\USERS\RCHENG\DROPBOX\JHU2013FALL\COMPUTERGRAPHICS\ASSIGNMENT2\JPEG___WIN32_DEBUG\JDHUFF.OBJ
C:\USERS\RCHENG\DROPBOX\JHU2013FALL\COMPUTERGRAPHICS\ASSIGNMENT2\JPEG___WIN32_DEBUG\JDINPUT.OBJ
C:\USERS\RCHENG\DROPBOX\JHU2013FALL\COMPUTERGRAPHICS\ASSIGNMENT2\JPEG___WIN32_DEBUG\JDMAINCT.OBJ
C:\USERS\RCHENG\DROPBOX\JHU2013FALL\COMPUTERGRAPHICS\ASSIGNMENT2\JPEG___WIN32_DEBUG\CKCONFIG.OBJ
C:\USERS\RCHENG\DROPBOX\JHU2013FALL\COMPUTERGRAPHICS\ASSIGNMENT2\JPEG___WIN32_DEBUG\JCAPIMIN.OBJ
C:\USERS\RCHENG\DROPBOX\JHU2013FALL\COMPUTERGRAPHICS\ASSIGNMENT2\JPEG___WIN32_DEBUG\JCAPISTD.OBJ
C:\USERS\RCHENG\DROPBOX\JHU2013FALL\COMPUTERGRAPHICS\ASSIGNMENT2\JPEG___WIN32_DEBUG\JCCOEFCT.OBJ
C:\USERS\RCHENG\DROPBOX\JHU2013FALL\COMPUTERGRAPHICS\ASSIGNMENT2\JPEG___WIN32_DEBUG\JCCOLOR.OBJ
C:\USERS\RCHENG\DROPBOX\JHU2013FALL\COMPUTERGRAPHICS\ASSIGNMENT2\JPEG___WIN32_DEBUG\JCDCTMGR.OBJ
C:\USERS\RCHENG\DROPBOX\JHU2013FALL\COMPUTERGRAPHICS\ASSIGNMENT2\JPEG___WIN32_DEBUG\JCHUFF.OBJ
^C:\USERS\RCHENG\DROPBOX\JHU2013FALL\COMPUTERGRAPHICS\ASSIGNMENT2\JPEG\CKCONFIG.CPP
C:\USERS\RCHENG\DROPBOX\JHU2013FALL\COMPUTERGRAPHICS\ASSIGNMENT2\JPEG___WIN32_DEBUG\VC100.PDB
^C:\USERS\RCHENG\DROPBOX\JHU2013FALL\COMPUTERGRAPHICS\ASSIGNMENT2\JPEG\JCAPIMIN.CPP
C:\USERS\RCHENG\DROPBOX\JHU2013FALL\COMPUTERGRAPHICS\ASSIGNMENT2\JPEG___WIN32_DEBUG\VC100.PDB
^C:\USERS\RCHENG\DROPBOX\JHU2013FALL\COMPUTERGRAPHICS\ASSIGNMENT2\JPEG\JCAPISTD.CPP
C:\USERS\RCHENG\DROPBOX\JHU2013FALL\COMPUTERGRAPHICS\ASSIGNMENT2\JPEG___WIN32_DEBUG\VC100.PDB
^C:\USERS\RCHENG\DROPBOX\JHU2013FALL\COMPUTERGRAPHICS\ASSIGNMENT2\JPEG\JCCOEFCT.CPP
C:\USERS\RCHENG\DROPBOX\JHU2013FALL\COMPUTERGRAPHICS\ASSIGNMENT2\JPEG___WIN32_DEBUG\VC100.PDB
^C:\USERS\RCHENG\DROPBOX\JHU2013FALL\COMPUTERGRAPHICS\ASSIGNMENT2\JPEG\JCCOLOR.CPP
C:\USERS\RCHENG\DROPBOX\JHU2013FALL\COMPUTERGRAPHICS\ASSIGNMENT2\JPEG___WIN32_DEBUG\VC100.PDB
^C:\USERS\RCHENG\DROPBOX\JHU2013FALL\COMPUTERGRAPHICS\ASSIGNMENT2\JPEG\JCDCTMGR.CPP
C:\USERS\RCHENG\DROPBOX\JHU2013FALL\COMPUTERGRAPHICS\ASSIGNMENT2\JPEG___WIN32_DEBUG\VC100.PDB
^C:\USERS\RCHENG\DROPBOX\JHU2013FALL\COMPUTERGRAPHICS\ASSIGNMENT2\JPEG\JCHUFF.CPP
C:\USERS\RCHENG\DROPBOX\JHU2013FALL\COMPUTERGRAPHICS\ASSIGNMENT2\JPEG___WIN32_DEBUG\VC100.PDB
^C:\USERS\RCHENG\DROPBOX\JHU2013FALL\COMPUTERGRAPHICS\ASSIGNMENT2\JPEG\JCINIT.CPP
C:\USERS\RCHENG\DROPBOX\JHU2013FALL\COMPUTERGRAPHICS\ASSIGNMENT2\JPEG___WIN32_DEBUG\VC100.PDB
^C:\USERS\RCHENG\DROPBOX\JHU2013FALL\COMPUTERGRAPHICS\ASSIGNMENT2\JPEG\JCMAINCT.CPP
C:\USERS\RCHENG\DROPBOX\JHU2013FALL\COMPUTERGRAPHICS\ASSIGNMENT2\JPEG___WIN32_DEBUG\VC100.PDB
^C:\USERS\RCHENG\DROPBOX\JHU2013FALL\COMPUTERGRAPHICS\ASSIGNMENT2\JPEG\JCMARKER.CPP
C:\USERS\RCHENG\DROPBOX\JHU2013FALL\COMPUTERGRAPHICS\ASSIGNMENT2\JPEG___WIN32_DEBUG\VC100.PDB
^C:\USERS\RCHENG\DROPBOX\JHU2013FALL\COMPUTERGRAPHICS\ASSIGNMENT2\JPEG\JCMASTER.CPP
C:\USERS\RCHENG\DROPBOX\JHU2013FALL\COMPUTERGRAPHICS\ASSIGNMENT2\JPEG___WIN32_DEBUG\VC100.PDB
^C:\USERS\RCHENG\DROPBOX\JHU2013FALL\COMPUTERGRAPHICS\ASSIGNMENT2\JPEG\JCOMAPI.CPP
C:\USERS\RCHENG\DROPBOX\JHU2013FALL\COMPUTERGRAPHICS\ASSIGNMENT2\JPEG___WIN32_DEBUG\VC100.PDB
^C:\USERS\RCHENG\DROPBOX\JHU2013FALL\COMPUTERGRAPHICS\ASSIGNMENT2\JPEG\JCPARAM.CPP
C:\USERS\RCHENG\DROPBOX\JHU2013FALL\COMPUTERGRAPHICS\ASSIGNMENT2\JPEG___WIN32_DEBUG\VC100.PDB
^C:\USERS\RCHENG\DROPBOX\JHU2013FALL\COMPUTERGRAPHICS\ASSIGNMENT2\JPEG\JCPHUFF.CPP
C:\USERS\RCHENG\DROPBOX\JHU2013FALL\COMPUTERGRAPHICS\ASSIGNMENT2\JPEG___WIN32_DEBUG\VC100.PDB
^C:\USERS\RCHENG\DROPBOX\JHU2013FALL\COMPUTERGRAPHICS\ASSIGNMENT2\JPEG\JCPREPCT.CPP
C:\USERS\RCHENG\DROPBOX\JHU2013FALL\COMPUTERGRAPHICS\ASSIGNMENT2\JPEG___WIN32_DEBUG\VC100.PDB
^C:\USERS\RCHENG\DROPBOX\JHU2013FALL\COMPUTERGRAPHICS\ASSIGNMENT2\JPEG\JCSAMPLE.CPP
C:\USERS\RCHENG\DROPBOX\JHU2013FALL\COMPUTERGRAPHICS\ASSIGNMENT2\JPEG___WIN32_DEBUG\VC100.PDB
^C:\USERS\RCHENG\DROPBOX\JHU2013FALL\COMPUTERGRAPHICS\ASSIGNMENT2\JPEG\JCTRANS.CPP
C:\USERS\RCHENG\DROPBOX\JHU2013FALL\COMPUTERGRAPHICS\ASSIGNMENT2\JPEG___WIN32_DEBUG\VC100.PDB
^C:\USERS\RCHENG\DROPBOX\JHU2013FALL\COMPUTERGRAPHICS\ASSIGNMENT2\JPEG\JDAPIMIN.CPP
C:\USERS\RCHENG\DROPBOX\JHU2013FALL\COMPUTERGRAPHICS\ASSIGNMENT2\JPEG___WIN32_DEBUG\VC100.PDB
^C:\USERS\RCHENG\DROPBOX\JHU2013FALL\COMPUTERGRAPHICS\ASSIGNMENT2\JPEG\JDAPISTD.CPP
C:\USERS\RCHENG\DROPBOX\JHU2013FALL\COMPUTERGRAPHICS\ASSIGNMENT2\JPEG___WIN32_DEBUG\VC100.PDB
^C:\USERS\RCHENG\DROPBOX\JHU2013FALL\COMPUTERGRAPHICS\ASSIGNMENT2\JPEG\JDATADST.CPP
C:\USERS\RCHENG\DROPBOX\JHU2013FALL\COMPUTERGRAPHICS\ASSIGNMENT2\JPEG___WIN32_DEBUG\VC100.PDB
^C:\USERS\RCHENG\DROPBOX\JHU2013FALL\COMPUTERGRAPHICS\ASSIGNMENT2\JPEG\JDATASRC.CPP
C:\USERS\RCHENG\DROPBOX\JHU2013FALL\COMPUTERGRAPHICS\ASSIGNMENT2\JPEG___WIN32_DEBUG\VC100.PDB
^C:\USERS\RCHENG\DROPBOX\JHU2013FALL\COMPUTERGRAPHICS\ASSIGNMENT2\JPEG\JDCOEFCT.CPP
C:\USERS\RCHENG\DROPBOX\JHU2013FALL\COMPUTERGRAPHICS\ASSIGNMENT2\JPEG___WIN32_DEBUG\VC100.PDB
^C:\USERS\RCHENG\DROPBOX\JHU2013FALL\COMPUTERGRAPHICS\ASSIGNMENT2\JPEG\JDCOLOR.CPP
C:\USERS\RCHENG\DROPBOX\JHU2013FALL\COMPUTERGRAPHICS\ASSIGNMENT2\JPEG___WIN32_DEBUG\VC100.PDB
^C:\USERS\RCHENG\DROPBOX\JHU2013FALL\COMPUTERGRAPHICS\ASSIGNMENT2\JPEG\JDDCTMGR.CPP
C:\USERS\RCHENG\DROPBOX\JHU2013FALL\COMPUTERGRAPHICS\ASSIGNMENT2\JPEG___WIN32_DEBUG\VC100.PDB
^C:\USERS\RCHENG\DROPBOX\JHU2013FALL\COMPUTERGRAPHICS\ASSIGNMENT2\JPEG\JDHUFF.CPP
C:\USERS\RCHENG\DROPBOX\JHU2013FALL\COMPUTERGRAPHICS\ASSIGNMENT2\JPEG___WIN32_DEBUG\VC100.PDB
^C:\USERS\RCHENG\DROPBOX\JHU2013FALL\COMPUTERGRAPHICS\ASSIGNMENT2\JPEG\JDINPUT.CPP
C:\USERS\RCHENG\DROPBOX\JHU2013FALL\COMPUTERGRAPHICS\ASSIGNMENT2\JPEG___WIN32_DEBUG\VC100.PDB
^C:\USERS\RCHENG\DROPBOX\JHU2013FALL\COMPUTERGRAPHICS\ASSIGNMENT2\JPEG\JDMAINCT.CPP
C:\USERS\RCHENG\DROPBOX\JHU2013FALL\COMPUTERGRAPHICS\ASSIGNMENT2\JPEG___WIN32_DEBUG\VC100.PDB
^C:\USERS\RCHENG\DROPBOX\JHU2013FALL\COMPUTERGRAPHICS\ASSIGNMENT2\JPEG\JDMARKER.CPP
C:\USERS\RCHENG\DROPBOX\JHU2013FALL\COMPUTERGRAPHICS\ASSIGNMENT2\JPEG___WIN32_DEBUG\VC100.PDB
^C:\USERS\RCHENG\DROPBOX\JHU2013FALL\COMPUTERGRAPHICS\ASSIGNMENT2\JPEG\JDMASTER.CPP
C:\USERS\RCHENG\DROPBOX\JHU2013FALL\COMPUTERGRAPHICS\ASSIGNMENT2\JPEG___WIN32_DEBUG\VC100.PDB
^C:\USERS\RCHENG\DROPBOX\JHU2013FALL\COMPUTERGRAPHICS\ASSIGNMENT2\JPEG\JDMERGE.CPP
C:\USERS\RCHENG\DROPBOX\JHU2013FALL\COMPUTERGRAPHICS\ASSIGNMENT2\JPEG___WIN32_DEBUG\VC100.PDB
^C:\USERS\RCHENG\DROPBOX\JHU2013FALL\COMPUTERGRAPHICS\ASSIGNMENT2\JPEG\JDPHUFF.CPP
C:\USERS\RCHENG\DROPBOX\JHU2013FALL\COMPUTERGRAPHICS\ASSIGNMENT2\JPEG___WIN32_DEBUG\VC100.PDB
^C:\USERS\RCHENG\DROPBOX\JHU2013FALL\COMPUTERGRAPHICS\ASSIGNMENT2\JPEG\JDPOSTCT.CPP
C:\USERS\RCHENG\DROPBOX\JHU2013FALL\COMPUTERGRAPHICS\ASSIGNMENT2\JPEG___WIN32_DEBUG\VC100.PDB
^C:\USERS\RCHENG\DROPBOX\JHU2013FALL\COMPUTERGRAPHICS\ASSIGNMENT2\JPEG\JDSAMPLE.CPP
C:\USERS\RCHENG\DROPBOX\JHU2013FALL\COMPUTERGRAPHICS\ASSIGNMENT2\JPEG___WIN32_DEBUG\VC100.PDB
^C:\USERS\RCHENG\DROPBOX\JHU2013FALL\COMPUTERGRAPHICS\ASSIGNMENT2\JPEG\JDTRANS.CPP
C:\USERS\RCHENG\DROPBOX\JHU2013FALL\COMPUTERGRAPHICS\ASSIGNMENT2\JPEG___WIN32_DEBUG\VC100.PDB
^C:\USERS\RCHENG\DROPBOX\JHU2013FALL\COMPUTERGRAPHICS\ASSIGNMENT2\JPEG\JERROR.CPP
C:\USERS\RCHENG\DROPBOX\JHU2013FALL\COMPUTERGRAPHICS\ASSIGNMENT2\JPEG___WIN32_DEBUG\VC100.PDB
^C:\USERS\RCHENG\DROPBOX\JHU2013FALL\COMPUTERGRAPHICS\ASSIGNMENT2\JPEG\JFDCTFLT.CPP
C:\USERS\RCHENG\DROPBOX\JHU2013FALL\COMPUTERGRAPHICS\ASSIGNMENT2\JPEG___WIN32_DEBUG\VC100.PDB
^C:\USERS\RCHENG\DROPBOX\JHU2013FALL\COMPUTERGRAPHICS\ASSIGNMENT2\JPEG\JFDCTFST.CPP
C:\USERS\RCHENG\DROPBOX\JHU2013FALL\COMPUTERGRAPHICS\ASSIGNMENT2\JPEG___WIN32_DEBUG\VC100.PDB
^C:\USERS\RCHENG\DROPBOX\JHU2013FALL\COMPUTERGRAPHICS\ASSIGNMENT2\JPEG\JFDCTINT.CPP
C:\USERS\RCHENG\DROPBOX\JHU2013FALL\COMPUTERGRAPHICS\ASSIGNMENT2\JPEG___WIN32_DEBUG\VC100.PDB
^C:\USERS\RCHENG\DROPBOX\JHU2013FALL\COMPUTERGRAPHICS\ASSIGNMENT2\JPEG\JIDCTFLT.CPP
C:\USERS\RCHENG\DROPBOX\JHU2013FALL\COMPUTERGRAPHICS\ASSIGNMENT2\JPEG___WIN32_DEBUG\VC100.PDB
^C:\USERS\RCHENG\DROPBOX\JHU2013FALL\COMPUTERGRAPHICS\ASSIGNMENT2\JPEG\JIDCTFST.CPP
C:\USERS\RCHENG\DROPBOX\JHU2013FALL\COMPUTERGRAPHICS\ASSIGNMENT2\JPEG___WIN32_DEBUG\VC100.PDB
^C:\USERS\RCHENG\DROPBOX\JHU2013FALL\COMPUTERGRAPHICS\ASSIGNMENT2\JPEG\JIDCTINT.CPP
C:\USERS\RCHENG\DROPBOX\JHU2013FALL\COMPUTERGRAPHICS\ASSIGNMENT2\JPEG___WIN32_DEBUG\VC100.PDB
^C:\USERS\RCHENG\DROPBOX\JHU2013FALL\COMPUTERGRAPHICS\ASSIGNMENT2\JPEG\JIDCTRED.CPP
C:\USERS\RCHENG\DROPBOX\JHU2013FALL\COMPUTERGRAPHICS\ASSIGNMENT2\JPEG___WIN32_DEBUG\VC100.PDB
^C:\USERS\RCHENG\DROPBOX\JHU2013FALL\COMPUTERGRAPHICS\ASSIGNMENT2\JPEG\JMEMMGR.CPP
C:\USERS\RCHENG\DROPBOX\JHU2013FALL\COMPUTERGRAPHICS\ASSIGNMENT2\JPEG___WIN32_DEBUG\VC100.PDB
^C:\USERS\RCHENG\DROPBOX\JHU2013FALL\COMPUTERGRAPHICS\ASSIGNMENT2\JPEG\JMEMNOBS.CPP
C:\USERS\RCHENG\DROPBOX\JHU2013FALL\COMPUTERGRAPHICS\ASSIGNMENT2\JPEG___WIN32_DEBUG\VC100.PDB
^C:\USERS\RCHENG\DROPBOX\JHU2013FALL\COMPUTERGRAPHICS\ASSIGNMENT2\JPEG\JQUANT1.CPP
C:\USERS\RCHENG\DROPBOX\JHU2013FALL\COMPUTERGRAPHICS\ASSIGNMENT2\JPEG___WIN32_DEBUG\VC100.PDB
^C:\USERS\RCHENG\DROPBOX\JHU2013FALL\COMPUTERGRAPHICS\ASSIGNMENT2\JPEG\JQUANT2.CPP
C:\USERS\RCHENG\DROPBOX\JHU2013FALL\COMPUTERGRAPHICS\ASSIGNMENT2\JPEG___WIN32_DEBUG\VC100.PDB
^C:\USERS\RCHENG\DROPBOX\JHU2013FALL\COMPUTERGRAPHICS\ASSIGNMENT2\JPEG\JUTILS.CPP
C:\USERS\RCHENG\DROPBOX\JHU2013FALL\COMPUTERGRAPHICS\ASSIGNMENT2\JPEG___WIN32_DEBUG\VC100.PDB
